[{
  "id": 476,
  "jobId": 474,
  "jobNumber": "474",
  "status": {
  "value": 1,
  "name": "Posted"
},
"summary": "nil",
"number": "A476",
"invoicedOn": "2015-11-10T00:00:00",
"tax": 0.0,
"subtotal": 33003.81,
"total": 33003.81,
"balance": 0.0,
"items": [
{
"id": 484,
"invoiceId": 476,
"sku": {
"id": 428,
"name": "MNSWRLN",
"type": "Service"
},
"salesType": 0,
"description": "Your sewer main is the primary sewer line that connects the city's main sewer line to your home. When a sewer main is damaged or needs to be repaired or replaced, this is usually an expensive job. One reason why sewer main repairs are so expensive is that the sewer main line is entirely under the ground, often below gardens, lawns, driveways, or patios. Your yard may need to be excavated or your driveway jackhammered to even access the sewer main. Often the repair needed is not the most expensive part of the process at all. The actual repair may be just the replacement of a length of pipe or the removal of overgrown tree roots. It is the access that is the costly part of the equation.",
"membershipTypeId": "nil",
"qty": 1.0,
"unitRate": 33003.81,
"total": 33003.81,
"totalCost": 0.0
}
],
"payments": [
{
"id": 485,
"invoiceId": 476,
"type": {
"id": 147,
"name": "Check"
},
"amount": 33003.81,
"totalAmount": 33003.81
}
],
"purchaseOrders": []
}]